Assignment2.utf8
…
Four main steps are performed on the meals2 data: (1) select the id variable and the variables that have the column name staring with side (except side15), pie (except pie3) and dessert (except dessert12); (2) transform the selected data in wide form to a long data.frame; (3) drop the rows where the value variable are NA or uninformative; (4) remove the digits in the type variable.

11-12. Install package widyr and use pairwise_cor() function. Explain what it does and use the function for the new dataset.

# install.packages("widyr")
library(widyr)
pairwise_cor(meals3, value, id, sort = TRUE)

## # A tibble: 7,832 x 3
##    item1               item2               correlation
##    <chr>               <chr>                     <dbl>
##  1 Cookies             Brownies                  0.411
##  2 Brownies            Cookies                   0.411
##  3 Sweet Potato        Macaroni and cheese       0.365
##  4 Macaroni and cheese Sweet Potato              0.365
##  5 Rolls/biscuits      Mashed potatoes           0.341
##  6 Mashed potatoes     Rolls/biscuits            0.341
##  7 Peach cobbler       Sweet Potato              0.339
##  8 Sweet Potato        Peach cobbler             0.339
##  9 Pumpkin             Mashed potatoes           0.290
## 10 Mashed potatoes     Pumpkin                   0.290
## #  with 7,822 more rows
…
